{
	"NitMapLcm": {
		"section": [
			[157.7903416,-174.4769488],
			[77.80533106,80.73898306],
			[45.78442853,231.0627111],
			[24.46342358,456.4238144],
			[15.92001438,594.2224264],
			[11.28582003,711.758988],
			[7.362229619,846.7335586],
			[5.763854866,936.0214415],
			[4.358809556,1026.698036],
			[3.694418789,1086.951867],
			[2.350141158,1221.600226],
			[1.465377962,1399.069213],
			[0.9543867822,1542.713381]
		],
		"sectionkeypoint": [3.190797,4.69455,10.56991,16.12923,25.36289,34.40078,55.86167,64.53642,90.69035,100.1641,200.5836,281.1089,528.3881]
	},
	"LcmMapNit": [
		[0,0.018349],
		[1,1.132332],
		[2,1.132667],
		[3,1.136287],
		[4,1.140936],
		[5,1.144086],
		[6,1.151581],
		[7,1.154187],
		[8,1.160796],
		[9,1.162377],
		[10,1.169127],
		[11,1.170607],
		[12,1.176787],
		[13,1.178309],
		[14,1.184011],
		[15,1.185624],
		[16,1.191996],
		[17,1.193462],
		[18,1.19908],
		[19,1.199431],
		[20,1.205834],
		[21,1.208034],
		[22,1.214999],
		[23,1.21635],
		[24,1.223103],
		[25,1.224902],
		[26,1.229499],
		[27,1.230808],
		[28,1.236395],
		[29,1.238365],
		[30,1.244502],
		[31,1.247032],
		[32,1.254111],
		[33,1.25673],
		[34,1.262761],
		[35,1.263265],
		[36,1.268546],
		[37,1.271244],
		[38,1.276195],
		[39,1.278179],
		[40,1.283848],
		[41,1.286057],
		[42,1.291341],
		[43,1.292099],
		[44,1.298463],
		[45,1.300058],
		[46,1.305907],
		[47,1.307137],
		[48,1.313057],
		[49,1.314627],
		[50,1.320597],
		[51,1.321522],
		[52,1.327684],
		[53,1.329506],
		[54,1.335245],
		[55,1.336357],
		[56,1.331158],
		[57,1.326899],
		[58,1.332895],
		[59,1.333344],
		[60,1.340023],
		[61,1.34128],
		[62,1.346915],
		[63,1.347843],
		[64,1.356583],
		[65,1.359024],
		[66,1.370782],
		[67,1.373287],
		[68,1.384617],
		[69,1.388032],
		[70,1.398866],
		[71,1.401506],
		[72,1.411334],
		[73,1.413355],
		[74,1.418658],
		[75,1.419682],
		[76,1.426292],
		[77,1.426971],
		[78,1.432614],
		[79,1.434222],
		[80,1.439673],
		[81,1.440818],
		[82,1.446257],
		[83,1.447966],
		[84,1.453613],
		[85,1.454977],
		[86,1.461478],
		[87,1.462392],
		[88,1.468083],
		[89,1.47022],
		[90,1.475971],
		[91,1.476541],
		[92,1.483389],
		[93,1.485049],
		[94,1.490638],
		[95,1.491532],
		[96,1.499093],
		[97,1.502819],
		[98,1.515161],
		[99,1.517126],
		[100,1.528809],
		[101,1.531608],
		[102,1.544137],
		[103,1.546485],
		[104,1.559913],
		[105,1.563256],
		[106,1.568584],
		[107,1.570364],
		[108,1.576807],
		[109,1.577255],
		[110,1.583153],
		[111,1.584509],
		[112,1.590403],
		[113,1.591751],
		[114,1.597368],
		[115,1.598555],
		[116,1.605736],
		[117,1.605944],
		[118,1.610515],
		[119,1.608268],
		[120,1.615564],
		[121,1.617245],
		[122,1.62251],
		[123,1.622515],
		[124,1.627328],
		[125,1.629261],
		[126,1.635132],
		[127,1.636512],
		[128,1.645133],
		[129,1.647649],
		[130,1.660324],
		[131,1.658576],
		[132,1.673474],
		[133,1.676462],
		[134,1.688281],
		[135,1.691036],
		[136,1.7025],
		[137,1.705934],
		[138,1.717],
		[139,1.720076],
		[140,1.732286],
		[141,1.734748],
		[142,1.746711],
		[143,1.748582],
		[144,1.757842],
		[145,1.758887],
		[146,1.765251],
		[147,1.765814],
		[148,1.772552],
		[149,1.774289],
		[150,1.779849],
		[151,1.784545],
		[152,1.872937],
		[153,1.907273],
		[154,1.912752],
		[155,1.914338],
		[156,1.920634],
		[157,1.922288],
		[158,1.927987],
		[159,1.930186],
		[160,1.940069],
		[161,1.941344],
		[162,1.953163],
		[163,1.956268],
		[164,1.967125],
		[165,1.968753],
		[166,1.980964],
		[167,1.984159],
		[168,1.996145],
		[169,1.99842],
		[170,2.012086],
		[171,2.014673],
		[172,2.023956],
		[173,2.027138],
		[174,2.040047],
		[175,2.042623],
		[176,2.053009],
		[177,2.054736],
		[178,2.06014],
		[179,2.061847],
		[180,2.066244],
		[181,2.06919],
		[182,2.074355],
		[183,2.07508],
		[184,2.082146],
		[185,2.08418],
		[186,2.090278],
		[187,2.090889],
		[188,2.096881],
		[189,2.098709],
		[190,2.104209],
		[191,2.104081],
		[192,2.115913],
		[193,2.118994],
		[194,2.131761],
		[195,2.13389],
		[196,2.149359],
		[197,2.152738],
		[198,2.165189],
		[199,2.167132],
		[200,2.178836],
		[201,2.182126],
		[202,2.194335],
		[203,2.198303],
		[204,2.210873],
		[205,2.213094],
		[206,2.227685],
		[207,2.227188],
		[208,2.236093],
		[209,2.242726],
		[210,2.250685],
		[211,2.257546],
		[212,2.263567],
		[213,2.271049],
		[214,2.279818],
		[215,2.287166],
		[216,2.293312],
		[217,2.304664],
		[218,2.308446],
		[219,2.317726],
		[220,2.32414],
		[221,2.330731],
		[222,2.339648],
		[223,2.347076],
		[224,2.354452],
		[225,2.360921],
		[226,2.36935],
		[227,2.375657],
		[228,2.382282],
		[229,2.372308],
		[230,2.379314],
		[231,2.386184],
		[232,2.395665],
		[233,2.401122],
		[234,2.409284],
		[235,2.418038],
		[236,2.425259],
		[237,2.430264],
		[238,2.437708],
		[239,2.445792],
		[240,2.451346],
		[241,2.458578],
		[242,2.467456],
		[243,2.474911],
		[244,2.482751],
		[245,2.488884],
		[246,2.495776],
		[247,2.503107],
		[248,2.510796],
		[249,2.518371],
		[250,2.528577],
		[251,2.536041],
		[252,2.54351],
		[253,2.553479],
		[254,2.559249],
		[255,2.566973],
		[256,2.573834],
		[257,2.582495],
		[258,2.589705],
		[259,2.596573],
		[260,2.60215],
		[261,2.617896],
		[262,2.623836],
		[263,2.632547],
		[264,2.63766],
		[265,2.649432],
		[266,2.654639],
		[267,2.663293],
		[268,2.669398],
		[269,2.678789],
		[270,2.682054],
		[271,2.691568],
		[272,2.699872],
		[273,2.707805],
		[274,2.714574],
		[275,2.722269],
		[276,2.729364],
		[277,2.733859],
		[278,2.740632],
		[279,2.747397],
		[280,2.754599],
		[281,2.762905],
		[282,2.771896],
		[283,2.778752],
		[284,2.784793],
		[285,2.792134],
		[286,2.79936],
		[287,2.80791],
		[288,2.8155],
		[289,2.825413],
		[290,2.830521],
		[291,2.83858],
		[292,2.845103],
		[293,2.879817],
		[294,2.887742],
		[295,2.895446],
		[296,2.900568],
		[297,2.910517],
		[298,2.919411],
		[299,2.926238],
		[300,2.931729],
		[301,2.941445],
		[302,2.94869],
		[303,2.954225],
		[304,2.964166],
		[305,2.974366],
		[306,2.978984],
		[307,2.985508],
		[308,2.989985],
		[309,2.995455],
		[310,3.009036],
		[311,3.01535],
		[312,3.021147],
		[313,3.032753],
		[314,3.038938],
		[315,3.046027],
		[316,3.051937],
		[317,3.063076],
		[318,3.070426],
		[319,3.075624],
		[320,3.084164],
		[321,3.094683],
		[322,3.106307],
		[323,3.124532],
		[324,3.134869],
		[325,3.145404],
		[326,3.158689],
		[327,3.169809],
		[328,3.179147],
		[329,3.190797],
		[330,3.203015],
		[331,3.215069],
		[332,3.226532],
		[333,3.238786],
		[334,3.248345],
		[335,3.258882],
		[336,3.268126],
		[337,3.281415],
		[338,3.292901],
		[339,3.305688],
		[340,3.314089],
		[341,3.325834],
		[342,3.33863],
		[343,3.351571],
		[344,3.360538],
		[345,3.354729],
		[346,3.366236],
		[347,3.377825],
		[348,3.387885],
		[349,3.400925],
		[350,3.410532],
		[351,3.423078],
		[352,3.432808],
		[353,3.442275],
		[354,3.457063],
		[355,3.469193],
		[356,3.478655],
		[357,3.489656],
		[358,3.500998],
		[359,3.513727],
		[360,3.523059],
		[361,3.53645],
		[362,3.547947],
		[363,3.559914],
		[364,3.569381],
		[365,3.57827],
		[366,3.598168],
		[367,3.610365],
		[368,3.620436],
		[369,3.63252],
		[370,3.643759],
		[371,3.658108],
		[372,3.667703],
		[373,3.678466],
		[374,3.691204],
		[375,3.700511],
		[376,3.714781],
		[377,3.722705],
		[378,3.73425],
		[379,3.745537],
		[380,3.758828],
		[381,3.767901],
		[382,3.781086],
		[383,3.791938],
		[384,3.803578],
		[385,3.815445],
		[386,3.826324],
		[387,4.028194],
		[388,4.040628],
		[389,4.051769],
		[390,4.063958],
		[391,4.074621],
		[392,4.085795],
		[393,4.096351],
		[394,4.111299],
		[395,4.118809],
		[396,4.129359],
		[397,4.143702],
		[398,4.153848],
		[399,4.166595],
		[400,4.178321],
		[401,4.190588],
		[402,4.202956],
		[403,4.213347],
		[404,4.223182],
		[405,4.235719],
		[406,4.246153],
		[407,4.258258],
		[408,4.269017],
		[409,4.288186],
		[410,4.296366],
		[411,4.309885],
		[412,4.320346],
		[413,4.332273],
		[414,4.344598],
		[415,4.356543],
		[416,4.368164],
		[417,4.379303],
		[418,4.39077],
		[419,4.401595],
		[420,4.411506],
		[421,4.425049],
		[422,4.437849],
		[423,4.448006],
		[424,4.460844],
		[425,4.470662],
		[426,4.484607],
		[427,4.494319],
		[428,4.508646],
		[429,4.518736],
		[430,4.510905],
		[431,4.52147],
		[432,4.532139],
		[433,4.545144],
		[434,4.558186],
		[435,4.564951],
		[436,4.576308],
		[437,4.588958],
		[438,4.601791],
		[439,4.614197],
		[440,4.625126],
		[441,4.634601],
		[442,4.648725],
		[443,4.6617],
		[444,4.672156],
		[445,4.682916],
		[446,4.69455],
		[447,4.704477],
		[448,4.716565],
		[449,4.731473],
		[450,4.748477],
		[451,4.768089],
		[452,4.785998],
		[453,4.800465],
		[454,4.815729],
		[455,4.832913],
		[456,4.847349],
		[457,4.86404],
		[458,4.880167],
		[459,4.890949],
		[460,4.90608],
		[461,4.922676],
		[462,4.938435],
		[463,4.955625],
		[464,4.970559],
		[465,4.984633],
		[466,4.99993],
		[467,5.043265],
		[468,5.057855],
		[469,5.074432],
		[470,5.088196],
		[471,5.103732],
		[472,5.1209],
		[473,5.133301],
		[474,5.135205],
		[475,5.163657],
		[476,5.183769],
		[477,5.196617],
		[478,5.211964],
		[479,5.226789],
		[480,5.243876],
		[481,5.257709],
		[482,5.275484],
		[483,5.294683],
		[484,5.309812],
		[485,5.327112],
		[486,5.340866],
		[487,5.357806],
		[488,5.373534],
		[489,5.388717],
		[490,5.404114],
		[491,5.419383],
		[492,5.434833],
		[493,5.449728],
		[494,5.465937],
		[495,5.481603],
		[496,5.494946],
		[497,5.512776],
		[498,5.525746],
		[499,5.526029],
		[500,5.539168],
		[501,5.555851],
		[502,5.574359],
		[503,5.586069],
		[504,5.604584],
		[505,5.622316],
		[506,5.637722],
		[507,5.65182],
		[508,5.66556],
		[509,5.682159],
		[510,5.700521],
		[511,5.713755],
		[512,5.731464],
		[513,5.748972],
		[514,5.773252],
		[515,5.793761],
		[516,5.815081],
		[517,5.835246],
		[518,5.852751],
		[519,5.87253],
		[520,5.894825],
		[521,5.911018],
		[522,5.928444],
		[523,5.948928],
		[524,5.970117],
		[525,5.988337],
		[526,6.007436],
		[527,6.149589],
		[528,6.170451],
		[529,6.189977],
		[530,6.209194],
		[531,6.22838],
		[532,6.249716],
		[533,6.266908],
		[534,6.287142],
		[535,6.307977],
		[536,6.324097],
		[537,6.343067],
		[538,6.363793],
		[539,6.384297],
		[540,6.407862],
		[541,6.42976],
		[542,6.448609],
		[543,6.468623],
		[544,6.485586],
		[545,6.504411],
		[546,6.522288],
		[547,6.543375],
		[548,6.565308],
		[549,6.586172],
		[550,6.605328],
		[551,6.625472],
		[552,6.643597],
		[553,6.643027],
		[554,6.663956],
		[555,6.681758],
		[556,6.700693],
		[557,6.721907],
		[558,6.741082],
		[559,6.757429],
		[560,6.776525],
		[561,6.797204],
		[562,6.819272],
		[563,6.83849],
		[564,6.858943],
		[565,6.882751],
		[566,6.902562],
		[567,6.921866],
		[568,6.94238],
		[569,6.961564],
		[570,6.980631],
		[571,7.000418],
		[572,7.015672],
		[573,7.040461],
		[574,7.05954],
		[575,7.079406],
		[576,7.097805],
		[577,7.116796],
		[578,7.166358],
		[579,7.183667],
		[580,7.204261],
		[581,7.225501],
		[582,7.241711],
		[583,7.263373],
		[584,7.284457],
		[585,7.302491],
		[586,7.323834],
		[587,7.340612],
		[588,7.361032],
		[589,7.38268],
		[590,7.400959],
		[591,7.428271],
		[592,7.447517],
		[593,7.467296],
		[594,7.485763],
		[595,7.507298],
		[596,7.526486],
		[597,7.544597],
		[598,7.563236],
		[599,7.576499],
		[600,7.599843],
		[601,7.620786],
		[602,7.640913],
		[603,7.659278],
		[604,7.659058],
		[605,7.678815],
		[606,7.697033],
		[607,7.718035],
		[608,7.738225],
		[609,7.756281],
		[610,7.7749],
		[611,7.789819],
		[612,7.807599],
		[613,7.830106],
		[614,7.848455],
		[615,7.870881],
		[616,7.891746],
		[617,7.916497],
		[618,7.93531],
		[619,7.957258],
		[620,7.978913],
		[621,8.000217],
		[622,8.018793],
		[623,8.039298],
		[624,8.058169],
		[625,8.076607],
		[626,8.09776],
		[627,8.119737],
		[628,8.137631],
		[629,8.071561],
		[630,8.089163],
		[631,8.107222],
		[632,8.129549],
		[633,8.148734],
		[634,8.172496],
		[635,8.189866],
		[636,8.208718],
		[637,8.230024],
		[638,8.250285],
		[639,8.26367],
		[640,8.288223],
		[641,8.317811],
		[642,8.349701],
		[643,8.375585],
		[644,8.404106],
		[645,8.433088],
		[646,8.458687],
		[647,8.488773],
		[648,8.512094],
		[649,8.54126],
		[650,8.567877],
		[651,8.577262],
		[652,8.603316],
		[653,8.632244],
		[654,8.659449],
		[655,8.686944],
		[656,8.715017],
		[657,8.743319],
		[658,8.767487],
		[659,8.798196],
		[660,8.832548],
		[661,8.86023],
		[662,8.889405],
		[663,8.919838],
		[664,8.946743],
		[665,8.974246],
		[666,8.999788],
		[667,9.030635],
		[668,9.055441],
		[669,9.112854],
		[670,9.14091],
		[671,9.171252],
		[672,9.195881],
		[673,9.222786],
		[674,9.252293],
		[675,9.28399],
		[676,9.309017],
		[677,9.335283],
		[678,9.368816],
		[679,9.398674],
		[680,9.426147],
		[681,9.453519],
		[682,9.485175],
		[683,9.507991],
		[684,9.535995],
		[685,9.566165],
		[686,9.594814],
		[687,9.60313],
		[688,9.629561],
		[689,9.656451],
		[690,9.684985],
		[691,9.717451],
		[692,9.74223],
		[693,9.77042],
		[694,9.798254],
		[695,9.828713],
		[696,9.852717],
		[697,9.884117],
		[698,9.91553],
		[699,9.943239],
		[700,9.986665],
		[701,9.99962],
		[702,10.02651],
		[703,10.05687],
		[704,10.08082],
		[705,10.11024],
		[706,10.273],
		[707,10.30604],
		[708,10.33876],
		[709,10.37452],
		[710,10.40525],
		[711,10.43625],
		[712,10.46476],
		[713,10.49698],
		[714,10.53448],
		[715,10.56991],
		[716,10.59947],
		[717,10.63142],
		[718,10.66496],
		[719,10.69512],
		[720,10.72744],
		[721,10.75862],
		[722,10.7722],
		[723,10.80363],
		[724,10.83454],
		[725,10.86699],
		[726,10.89972],
		[727,10.9255],
		[728,10.96304],
		[729,10.9942],
		[730,11.0295],
		[731,11.06326],
		[732,11.09915],
		[733,11.12874],
		[734,11.15845],
		[735,11.19101],
		[736,11.22388],
		[737,11.25743],
		[738,11.31884],
		[739,11.34798],
		[740,11.37882],
		[741,11.4143],
		[742,11.44669],
		[743,11.47524],
		[744,11.5098],
		[745,11.54026],
		[746,11.57838],
		[747,11.6102],
		[748,11.64089],
		[749,11.67307],
		[750,11.70868],
		[751,11.73459],
		[752,11.76744],
		[753,11.80014],
		[754,11.81132],
		[755,11.8476],
		[756,11.87941],
		[757,11.91158],
		[758,11.9446],
		[759,11.97387],
		[760,12.00811],
		[761,12.04137],
		[762,12.07581],
		[763,12.11019],
		[764,12.14014],
		[765,12.17818],
		[766,12.20304],
		[767,12.23549],
		[768,12.26941],
		[769,12.51026],
		[770,12.55237],
		[771,12.58988],
		[772,12.63122],
		[773,12.67129],
		[774,12.71009],
		[775,12.75263],
		[776,12.7996],
		[777,12.8407],
		[778,12.88128],
		[779,12.91882],
		[780,12.95819],
		[781,12.9977],
		[782,13.02246],
		[783,13.06081],
		[784,13.09849],
		[785,13.14011],
		[786,13.17844],
		[787,13.22272],
		[788,13.25809],
		[789,13.30812],
		[790,13.34581],
		[791,13.38918],
		[792,13.4278],
		[793,13.46523],
		[794,13.50552],
		[795,13.57371],
		[796,13.61592],
		[797,13.65685],
		[798,13.6898],
		[799,13.73197],
		[800,13.77365],
		[801,13.82203],
		[802,13.85962],
		[803,13.90233],
		[804,13.94425],
		[805,13.98375],
		[806,14.02111],
		[807,14.06861],
		[808,14.08412],
		[809,14.12292],
		[810,14.16123],
		[811,14.20633],
		[812,14.24276],
		[813,14.28296],
		[814,14.33258],
		[815,14.37077],
		[816,14.41397],
		[817,14.45055],
		[818,14.48928],
		[819,14.53339],
		[820,14.57375],
		[821,14.73887],
		[822,14.78288],
		[823,14.82609],
		[824,14.86443],
		[825,14.90333],
		[826,14.94512],
		[827,14.98878],
		[828,15.02832],
		[829,15.07019],
		[830,15.11282],
		[831,15.14825],
		[832,15.19349],
		[833,15.2168],
		[834,15.26571],
		[835,15.31889],
		[836,15.36119],
		[837,15.41108],
		[838,15.45986],
		[839,15.51198],
		[840,15.56444],
		[841,15.61133],
		[842,15.65908],
		[843,15.70927],
		[844,15.78357],
		[845,15.82954],
		[846,15.87955],
		[847,15.92593],
		[848,15.97956],
		[849,16.03346],
		[850,16.08408],
		[851,16.12923],
		[852,16.1781],
		[853,16.22656],
		[854,16.27448],
		[855,16.30449],
		[856,16.35558],
		[857,16.407],
		[858,16.44669],
		[859,16.49943],
		[860,16.54883],
		[861,16.598],
		[862,16.65359],
		[863,16.69737],
		[864,16.74561],
		[865,16.81696],
		[866,16.86739],
		[867,16.9117],
		[868,16.9612],
		[869,17.01105],
		[870,17.0589],
		[871,17.11233],
		[872,17.16232],
		[873,17.20931],
		[874,17.2622],
		[875,17.308],
		[876,17.33838],
		[877,17.38601],
		[878,17.43425],
		[879,17.48028],
		[880,17.53013],
		[881,17.58695],
		[882,17.63762],
		[883,17.68315],
		[884,17.73047],
		[885,17.78096],
		[886,17.82774],
		[887,17.90781],
		[888,17.9526],
		[889,18.00316],
		[890,18.05055],
		[891,18.10268],
		[892,18.1599],
		[893,18.20487],
		[894,18.2519],
		[895,18.299],
		[896,18.34842],
		[897,18.39239],
		[898,18.45465],
		[899,18.51288],
		[900,18.57017],
		[901,18.64262],
		[902,18.70527],
		[903,18.76361],
		[904,18.82409],
		[905,18.8838],
		[906,19.08009],
		[907,19.13967],
		[908,19.19797],
		[909,19.25812],
		[910,19.33079],
		[911,19.38933],
		[912,19.44572],
		[913,19.50839],
		[914,19.55178],
		[915,19.61242],
		[916,19.67014],
		[917,19.73579],
		[918,19.79997],
		[919,19.86198],
		[920,19.92328],
		[921,19.97915],
		[922,20.04436],
		[923,20.13893],
		[924,20.19488],
		[925,20.25795],
		[926,20.31908],
		[927,20.38603],
		[928,20.44567],
		[929,20.50235],
		[930,20.56837],
		[931,20.60925],
		[932,20.66852],
		[933,20.73224],
		[934,20.794],
		[935,20.85819],
		[936,20.9154],
		[937,20.98218],
		[938,21.04518],
		[939,21.10361],
		[940,21.36823],
		[941,21.43539],
		[942,21.48965],
		[943,21.54961],
		[944,21.61451],
		[945,21.68109],
		[946,21.73927],
		[947,21.79484],
		[948,21.84715],
		[949,21.90457],
		[950,21.96559],
		[951,22.0305],
		[952,22.08114],
		[953,22.15832],
		[954,22.21638],
		[955,22.27464],
		[956,22.33868],
		[957,22.42598],
		[958,22.48688],
		[959,22.55178],
		[960,22.61054],
		[961,22.68218],
		[962,22.7522],
		[963,22.82364],
		[964,22.89053],
		[965,22.94666],
		[966,23.01236],
		[967,23.08159],
		[968,23.15006],
		[969,23.22716],
		[970,23.29215],
		[971,23.36135],
		[972,23.56487],
		[973,23.62642],
		[974,23.69314],
		[975,23.76583],
		[976,23.84088],
		[977,23.91157],
		[978,23.9796],
		[979,24.04957],
		[980,24.09545],
		[981,24.16483],
		[982,24.23323],
		[983,24.30731],
		[984,24.37779],
		[985,24.44963],
		[986,24.51917],
		[987,24.61979],
		[988,24.68785],
		[989,24.75788],
		[990,24.82601],
		[991,24.89785],
		[992,24.97288],
		[993,25.04244],
		[994,25.1081],
		[995,25.1523],
		[996,25.22606],
		[997,25.29775],
		[998,25.36289],
		[999,25.43935],
		[1000,25.51323],
		[1001,25.57797],
		[1002,25.55096],
		[1003,25.62323],
		[1004,25.68488],
		[1005,25.75831],
		[1006,25.82993],
		[1007,25.90577],
		[1008,25.97514],
		[1009,26.04418],
		[1010,26.08684],
		[1011,26.16031],
		[1012,26.23209],
		[1013,26.30755],
		[1014,26.3774],
		[1015,26.444],
		[1016,26.5145],
		[1017,26.6095],
		[1018,26.68195],
		[1019,26.74923],
		[1020,26.82402],
		[1021,26.9014],
		[1022,26.96538],
		[1023,27.03465],
		[1024,27.16967],
		[1025,27.25459],
		[1026,27.34752],
		[1027,27.4399],
		[1028,27.52207],
		[1029,27.61247],
		[1030,27.82994],
		[1031,27.90813],
		[1032,27.99759],
		[1033,28.08252],
		[1034,28.17488],
		[1035,28.26195],
		[1036,28.3265],
		[1037,28.41715],
		[1038,28.49243],
		[1039,28.584],
		[1040,28.67063],
		[1041,28.7602],
		[1042,28.87085],
		[1043,28.95649],
		[1044,29.04568],
		[1045,29.13336],
		[1046,29.22508],
		[1047,29.31042],
		[1048,29.37133],
		[1049,29.46092],
		[1050,29.5429],
		[1051,29.63371],
		[1052,29.72442],
		[1053,29.81353],
		[1054,30.10712],
		[1055,30.17929],
		[1056,30.26986],
		[1057,30.36291],
		[1058,30.44852],
		[1059,30.53249],
		[1060,30.60031],
		[1061,30.68059],
		[1062,30.76937],
		[1063,30.85619],
		[1064,30.94459],
		[1065,31.03703],
		[1066,31.12193],
		[1067,31.23719],
		[1068,31.31766],
		[1069,31.40508],
		[1070,31.50485],
		[1071,31.58067],
		[1072,31.66228],
		[1073,31.72958],
		[1074,31.81523],
		[1075,31.90814],
		[1076,31.99914],
		[1077,32.08397],
		[1078,32.16525],
		[1079,32.38073],
		[1080,32.46897],
		[1081,32.55402],
		[1082,32.64447],
		[1083,32.72466],
		[1084,32.81509],
		[1085,32.87935],
		[1086,32.96036],
		[1087,33.04768],
		[1088,33.16349],
		[1089,33.26213],
		[1090,33.39147],
		[1091,33.49135],
		[1092,33.59989],
		[1093,33.7058],
		[1094,33.80537],
		[1095,33.91254],
		[1096,33.99294],
		[1097,34.10175],
		[1098,34.19787],
		[1099,34.3071],
		[1100,34.40078],
		[1101,34.93047],
		[1102,35.03591],
		[1103,35.13634],
		[1104,35.25258],
		[1105,35.34666],
		[1106,35.42721],
		[1107,35.53012],
		[1108,35.63761],
		[1109,35.7428],
		[1110,35.84604],
		[1111,35.97271],
		[1112,36.07827],
		[1113,36.18546],
		[1114,36.29412],
		[1115,36.39046],
		[1116,36.47115],
		[1117,36.57118],
		[1118,36.67484],
		[1119,36.78404],
		[1120,36.89173],
		[1121,37.11911],
		[1122,37.2243],
		[1123,37.33075],
		[1124,37.4319],
		[1125,37.53572],
		[1126,37.62356],
		[1127,37.72585],
		[1128,37.81979],
		[1129,37.93744],
		[1130,38.04096],
		[1131,38.16544],
		[1132,38.27414],
		[1133,38.37441],
		[1134,38.48011],
		[1135,38.57822],
		[1136,38.66154],
		[1137,38.77264],
		[1138,38.87257],
		[1139,38.97478],
		[1140,39.0784],
		[1141,39.18098],
		[1142,39.49247],
		[1143,39.58736],
		[1144,39.69928],
		[1145,39.79977],
		[1146,39.90074],
		[1147,39.98702],
		[1148,40.08838],
		[1149,40.19776],
		[1150,40.30053],
		[1151,40.39934],
		[1152,40.56827],
		[1153,40.692],
		[1154,40.82859],
		[1155,40.96772],
		[1156,41.11515],
		[1157,41.2042],
		[1158,41.33468],
		[1159,41.4698],
		[1160,41.73597],
		[1161,41.86052],
		[1162,41.99605],
		[1163,42.13072],
		[1164,42.24274],
		[1165,42.36799],
		[1166,42.50951],
		[1167,42.63617],
		[1168,42.79915],
		[1169,42.93037],
		[1170,43.06304],
		[1171,43.18819],
		[1172,43.30379],
		[1173,43.434],
		[1174,43.57629],
		[1175,43.70127],
		[1176,43.73736],
		[1177,43.87713],
		[1178,44.01291],
		[1179,44.14213],
		[1180,44.25373],
		[1181,44.38377],
		[1182,44.52274],
		[1183,44.65593],
		[1184,44.81465],
		[1185,44.95265],
		[1186,45.08888],
		[1187,45.21308],
		[1188,45.32401],
		[1189,45.4535],
		[1190,45.58985],
		[1191,45.72262],
		[1192,45.98191],
		[1193,46.11731],
		[1194,46.25864],
		[1195,46.3829],
		[1196,46.4943],
		[1197,46.62663],
		[1198,46.76415],
		[1199,46.90092],
		[1200,47.06103],
		[1201,47.19326],
		[1202,47.32326],
		[1203,47.45561],
		[1204,47.56527],
		[1205,47.69661],
		[1206,47.83338],
		[1207,47.96497],
		[1208,48.29712],
		[1209,48.433],
		[1210,48.57235],
		[1211,48.70124],
		[1212,48.8195],
		[1213,48.94647],
		[1214,49.07692],
		[1215,49.19939],
		[1216,49.38765],
		[1217,49.52932],
		[1218,49.68654],
		[1219,49.81904],
		[1220,49.95335],
		[1221,50.10364],
		[1222,50.25986],
		[1223,50.53409],
		[1224,50.68725],
		[1225,50.83934],
		[1226,50.9607],
		[1227,51.1031],
		[1228,51.26075],
		[1229,51.41206],
		[1230,51.58981],
		[1231,51.73813],
		[1232,51.89429],
		[1233,52.03225],
		[1234,52.1538],
		[1235,52.30762],
		[1236,52.44904],
		[1237,52.61861],
		[1238,52.7728],
		[1239,52.92049],
		[1240,53.05863],
		[1241,53.19016],
		[1242,53.34962],
		[1243,53.49204],
		[1244,53.67136],
		[1245,53.81598],
		[1246,53.97569],
		[1247,54.12172],
		[1248,54.25094],
		[1249,54.38794],
		[1250,54.54395],
		[1251,54.82961],
		[1252,54.97838],
		[1253,55.12593],
		[1254,55.27448],
		[1255,55.38704],
		[1256,55.53989],
		[1257,55.69103],
		[1258,55.86167],
		[1259,56.01897],
		[1260,56.16754],
		[1261,56.32747],
		[1262,56.44399],
		[1263,56.5904],
		[1264,56.74438],
		[1265,56.89084],
		[1266,57.24592],
		[1267,57.4022],
		[1268,57.5434],
		[1269,57.67418],
		[1270,57.81741],
		[1271,57.96988],
		[1272,58.11235],
		[1273,58.29842],
		[1274,58.44359],
		[1275,58.58569],
		[1276,58.72449],
		[1277,58.87346],
		[1278,59.03244],
		[1279,59.17161],
		[1280,59.48737],
		[1281,59.65343],
		[1282,59.83506],
		[1283,59.99782],
		[1284,60.18458],
		[1285,60.37073],
		[1286,60.56761],
		[1287,60.7589],
		[1288,60.90557],
		[1289,61.08512],
		[1290,61.28099],
		[1291,61.35716],
		[1292,61.53376],
		[1293,61.71928],
		[1294,61.86382],
		[1295,62.05508],
		[1296,62.23619],
		[1297,62.46341],
		[1298,62.63806],
		[1299,62.82993],
		[1300,62.98549],
		[1301,63.15341],
		[1302,63.34303],
		[1303,63.64766],
		[1304,63.82135],
		[1305,64.00794],
		[1306,64.1808],
		[1307,64.35583],
		[1308,64.53642],
		[1309,64.75827],
		[1310,64.93867],
		[1311,65.12067],
		[1312,65.28506],
		[1313,65.46959],
		[1314,65.6407],
		[1315,66.03241],
		[1316,66.22614],
		[1317,66.40102],
		[1318,66.55087],
		[1319,66.74628],
		[1320,66.94639],
		[1321,67.13145],
		[1322,67.33175],
		[1323,67.46502],
		[1324,67.65648],
		[1325,67.84615],
		[1326,68.15081],
		[1327,68.32252],
		[1328,68.49754],
		[1329,68.66305],
		[1330,68.83245],
		[1331,69.03126],
		[1332,69.24147],
		[1333,69.42503],
		[1334,69.59631],
		[1335,69.76219],
		[1336,69.95078],
		[1337,70.12894],
		[1338,70.73046],
		[1339,70.90551],
		[1340,71.08297],
		[1341,71.24471],
		[1342,71.4236],
		[1343,71.61409],
		[1344,71.86311],
		[1345,72.11687],
		[1346,72.30345],
		[1347,72.52862],
		[1348,72.87955],
		[1349,73.08949],
		[1350,73.33125],
		[1351,73.51248],
		[1352,73.75236],
		[1353,73.99364],
		[1354,74.22349],
		[1355,74.44243],
		[1356,74.64057],
		[1357,74.87554],
		[1358,75.29816],
		[1359,75.53185],
		[1360,75.71629],
		[1361,75.95117],
		[1362,76.16492],
		[1363,76.41444],
		[1364,76.62627],
		[1365,76.84072],
		[1366,77.05261],
		[1367,77.41371],
		[1368,77.6342],
		[1369,77.86365],
		[1370,78.0541],
		[1371,78.28372],
		[1372,78.52942],
		[1373,78.74083],
		[1374,78.94839],
		[1375,79.16721],
		[1376,79.41161],
		[1377,79.54349],
		[1378,79.7616],
		[1379,79.95621],
		[1380,80.17941],
		[1381,80.39904],
		[1382,80.65575],
		[1383,80.88194],
		[1384,81.07422],
		[1385,81.30151],
		[1386,81.64696],
		[1387,81.86613],
		[1388,82.09684],
		[1389,82.28853],
		[1390,82.51772],
		[1391,82.78561],
		[1392,82.99214],
		[1393,83.19451],
		[1394,83.42287],
		[1395,83.64733],
		[1396,84.05778],
		[1397,84.28991],
		[1398,84.48005],
		[1399,84.71171],
		[1400,84.94159],
		[1401,85.17788],
		[1402,85.40355],
		[1403,85.59369],
		[1404,85.84196],
		[1405,86.17155],
		[1406,86.40682],
		[1407,86.61178],
		[1408,86.86167],
		[1409,87.12124],
		[1410,87.41642],
		[1411,87.6843],
		[1412,87.92006],
		[1413,88.18181],
		[1414,88.45181],
		[1415,88.73315],
		[1416,88.96169],
		[1417,89.22704],
		[1418,89.52503],
		[1419,89.78233],
		[1420,90.01076],
		[1421,90.28788],
		[1422,90.69035],
		[1423,90.94423],
		[1424,91.19155],
		[1425,91.46056],
		[1426,91.74542],
		[1427,92.01437],
		[1428,92.23576],
		[1429,92.51871],
		[1430,93.00054],
		[1431,93.24393],
		[1432,93.48563],
		[1433,93.75629],
		[1434,94.05595],
		[1435,94.29346],
		[1436,94.53635],
		[1437,94.80338],
		[1438,95.18445],
		[1439,95.43406],
		[1440,95.70049],
		[1441,95.96079],
		[1442,96.26447],
		[1443,96.50619],
		[1444,96.75892],
		[1445,97.01643],
		[1446,97.17223],
		[1447,97.42786],
		[1448,97.67865],
		[1449,97.96357],
		[1450,98.24718],
		[1451,98.49644],
		[1452,98.74449],
		[1453,99.00919],
		[1454,99.39795],
		[1455,99.65652],
		[1456,99.87302],
		[1457,100.1641],
		[1458,100.4471],
		[1459,100.7135],
		[1460,100.958],
		[1461,101.2363],
		[1462,101.6803],
		[1463,101.9555],
		[1464,102.1788],
		[1465,102.4421],
		[1466,102.753],
		[1467,103.0204],
		[1468,103.2438],
		[1469,103.5217],
		[1470,103.9077],
		[1471,104.1587],
		[1472,104.4402],
		[1473,104.7878],
		[1474,105.1188],
		[1475,105.4261],
		[1476,105.7132],
		[1477,106.4591],
		[1478,106.752],
		[1479,107.0713],
		[1480,107.4165],
		[1481,107.6972],
		[1482,108.0247],
		[1483,108.4706],
		[1484,108.7958],
		[1485,109.0896],
		[1486,109.441],
		[1487,109.7567],
		[1488,110.0517],
		[1489,110.3654],
		[1490,110.8887],
		[1491,111.1966],
		[1492,111.5355],
		[1493,111.8687],
		[1494,112.1937],
		[1495,112.4829],
		[1496,112.9535],
		[1497,113.2283],
		[1498,113.5281],
		[1499,113.877],
		[1500,114.1934],
		[1501,114.4889],
		[1502,114.8167],
		[1503,115.0333],
		[1504,115.3309],
		[1505,115.6505],
		[1506,115.9983],
		[1507,116.3169],
		[1508,116.5949],
		[1509,117.0589],
		[1510,117.373],
		[1511,117.6755],
		[1512,117.9872],
		[1513,118.3486],
		[1514,118.6176],
		[1515,118.9358],
		[1516,119.4634],
		[1517,119.7881],
		[1518,120.0714],
		[1519,120.4215],
		[1520,120.747],
		[1521,121.0474],
		[1522,121.4665],
		[1523,121.7895],
		[1524,122.0904],
		[1525,122.4099],
		[1526,122.7405],
		[1527,123.0286],
		[1528,123.3542],
		[1529,123.6912],
		[1530,123.9966],
		[1531,124.2799],
		[1532,124.639],
		[1533,124.9429],
		[1534,125.2441],
		[1535,125.5614],
		[1536,126.0742],
		[1537,126.4322],
		[1538,126.8678],
		[1539,127.2787],
		[1540,127.6358],
		[1541,128.2056],
		[1542,128.5869],
		[1543,128.9937],
		[1544,129.4114],
		[1545,129.744],
		[1546,130.2813],
		[1547,130.667],
		[1548,131.0313],
		[1549,131.4318],
		[1550,131.8059],
		[1551,132.2043],
		[1552,132.4941],
		[1553,132.8825],
		[1554,133.2892],
		[1555,133.6633],
		[1556,134.0377],
		[1557,134.5299],
		[1558,134.9093],
		[1559,135.2919],
		[1560,135.7015],
		[1561,136.0744],
		[1562,136.659],
		[1563,137.0599],
		[1564,137.4397],
		[1565,137.848],
		[1566,138.2292],
		[1567,138.6159],
		[1568,139.1063],
		[1569,139.4765],
		[1570,139.9004],
		[1571,140.282],
		[1572,140.6518],
		[1573,142.9821],
		[1574,143.3468],
		[1575,143.709],
		[1576,144.1416],
		[1577,144.5058],
		[1578,145.0428],
		[1579,145.4209],
		[1580,145.7738],
		[1581,146.1969],
		[1582,146.5553],
		[1583,146.9427],
		[1584,147.5757],
		[1585,147.8992],
		[1586,148.3379],
		[1587,148.6963],
		[1588,149.0765],
		[1589,149.58],
		[1590,149.9593],
		[1591,150.3305],
		[1592,150.7365],
		[1593,151.115],
		[1594,151.4154],
		[1595,151.7879],
		[1596,152.1636],
		[1597,152.5652],
		[1598,152.9381],
		[1599,153.3266],
		[1600,153.9087],
		[1601,154.3377],
		[1602,154.8185],
		[1603,155.2637],
		[1604,155.9047],
		[1605,156.3316],
		[1606,156.7921],
		[1607,157.2437],
		[1608,157.6775],
		[1609,158.2299],
		[1610,158.6776],
		[1611,159.165],
		[1612,159.593],
		[1613,160.0366],
		[1614,160.4796],
		[1615,160.9298],
		[1616,161.4257],
		[1617,161.8079],
		[1618,162.4032],
		[1619,162.8231],
		[1620,163.3225],
		[1621,163.7208],
		[1622,164.3987],
		[1623,164.8471],
		[1624,165.2711],
		[1625,165.7658],
		[1626,166.1651],
		[1627,166.7186],
		[1628,167.1591],
		[1629,167.6086],
		[1630,168.0762],
		[1631,168.4924],
		[1632,168.8364],
		[1633,169.2619],
		[1634,169.774],
		[1635,170.2138],
		[1636,170.7671],
		[1637,171.1568],
		[1638,171.6424],
		[1639,172.1048],
		[1640,172.5135],
		[1641,173.141],
		[1642,173.5869],
		[1643,174.0689],
		[1644,174.5177],
		[1645,175.022],
		[1646,175.4785],
		[1647,175.9205],
		[1648,176.4123],
		[1649,176.839],
		[1650,177.6538],
		[1651,178.0948],
		[1652,178.5936],
		[1653,178.9843],
		[1654,179.5837],
		[1655,180.018],
		[1656,180.472],
		[1657,180.9211],
		[1658,181.318],
		[1659,181.9791],
		[1660,182.3796],
		[1661,182.8602],
		[1662,183.2737],
		[1663,183.7706],
		[1664,184.41],
		[1665,184.9356],
		[1666,185.4565],
		[1667,185.9336],
		[1668,186.4404],
		[1669,187.0116],
		[1670,187.5318],
		[1671,188.155],
		[1672,188.6855],
		[1673,189.2512],
		[1674,189.7801],
		[1675,190.5217],
		[1676,191.0434],
		[1677,191.6307],
		[1678,192.1187],
		[1679,192.7872],
		[1680,193.2986],
		[1681,193.8609],
		[1682,194.4063],
		[1683,194.9187],
		[1684,195.4805],
		[1685,195.99],
		[1686,196.6541],
		[1687,197.1846],
		[1688,197.7545],
		[1689,198.2553],
		[1690,199.0195],
		[1691,199.5043],
		[1692,200.0386],
		[1693,200.5836],
		[1694,201.2696],
		[1695,201.7793],
		[1696,202.3204],
		[1697,202.7568],
		[1698,203.2766],
		[1699,203.8372],
		[1700,204.3365],
		[1701,205.0127],
		[1702,205.5573],
		[1703,206.0623],
		[1704,206.5901],
		[1705,207.3428],
		[1706,207.8087],
		[1707,208.3954],
		[1708,208.918],
		[1709,209.5846],
		[1710,210.0636],
		[1711,210.6265],
		[1712,211.1542],
		[1713,212.0116],
		[1714,212.5711],
		[1715,213.0708],
		[1716,213.7637],
		[1717,214.2883],
		[1718,214.8474],
		[1719,215.3413],
		[1720,216.0665],
		[1721,216.5934],
		[1722,217.178],
		[1723,217.7012],
		[1724,218.3435],
		[1725,218.9452],
		[1726,219.4541],
		[1727,219.9576],
		[1728,220.4571],
		[1729,221.1424],
		[1730,221.7227],
		[1731,222.4559],
		[1732,223.164],
		[1733,223.7399],
		[1734,224.6169],
		[1735,225.2778],
		[1736,225.9067],
		[1737,226.6758],
		[1738,227.3033],
		[1739,227.901],
		[1740,228.579],
		[1741,229.2126],
		[1742,229.864],
		[1743,230.6249],
		[1744,231.3236],
		[1745,231.9452],
		[1746,232.7375],
		[1747,233.3692],
		[1748,234.0333],
		[1749,234.7617],
		[1750,235.4019],
		[1751,236.0421],
		[1752,236.6781],
		[1753,237.2095],
		[1754,237.8546],
		[1755,238.4834],
		[1756,239.2216],
		[1757,239.8724],
		[1758,240.5164],
		[1759,241.3615],
		[1760,241.9508],
		[1761,242.5876],
		[1762,243.3413],
		[1763,244.0118],
		[1764,244.5937],
		[1765,245.6479],
		[1766,246.2361],
		[1767,246.866],
		[1768,247.592],
		[1769,248.2442],
		[1770,248.8902],
		[1771,249.7363],
		[1772,250.3328],
		[1773,251.0067],
		[1774,251.6984],
		[1775,252.3796],
		[1776,253.0446],
		[1777,253.6366],
		[1778,254.2081],
		[1779,254.8285],
		[1780,255.4349],
		[1781,256.1955],
		[1782,256.8272],
		[1783,257.4242],
		[1784,258.244],
		[1785,258.8951],
		[1786,259.4802],
		[1787,260.2582],
		[1788,260.8965],
		[1789,261.5028],
		[1790,262.1404],
		[1791,262.8026],
		[1792,263.5265],
		[1793,264.4637],
		[1794,265.2557],
		[1795,266.2167],
		[1796,266.939],
		[1797,267.7373],
		[1798,268.5905],
		[1799,269.3889],
		[1800,270.1119],
		[1801,270.7659],
		[1802,271.5569],
		[1803,272.4644],
		[1804,273.2733],
		[1805,273.9369],
		[1806,274.9104],
		[1807,275.6802],
		[1808,276.5313],
		[1809,277.3409],
		[1810,278.0993],
		[1811,281.1089],
		[1812,281.8829],
		[1813,282.7769],
		[1814,283.4771],
		[1815,284.2545],
		[1816,285.2254],
		[1817,285.9742],
		[1818,286.8889],
		[1819,287.5984],
		[1820,288.393],
		[1821,289.0249],
		[1822,289.8266],
		[1823,290.5499],
		[1824,291.4055],
		[1825,292.1636],
		[1826,293.1334],
		[1827,293.8703],
		[1828,294.6362],
		[1829,295.4875],
		[1830,296.29],
		[1831,297.0493],
		[1832,297.7381],
		[1833,298.576],
		[1834,299.4205],
		[1835,300.2173],
		[1836,301.0881],
		[1837,301.8497],
		[1838,302.6446],
		[1839,303.4953],
		[1840,304.2449],
		[1841,304.9407],
		[1842,305.6298],
		[1843,306.455],
		[1844,307.3158],
		[1845,308.0313],
		[1846,308.8152],
		[1847,309.747],
		[1848,310.5042],
		[1849,311.3873],
		[1850,312.1356],
		[1851,312.8911],
		[1852,313.9694],
		[1853,314.7575],
		[1854,315.6064],
		[1855,316.347],
		[1856,317.2491],
		[1857,318.3606],
		[1858,319.2592],
		[1859,320.2108],
		[1860,321.1586],
		[1861,321.9844],
		[1862,322.8892],
		[1863,323.9328],
		[1864,324.7873],
		[1865,325.9052],
		[1866,326.799],
		[1867,327.7735],
		[1868,328.6412],
		[1869,329.5982],
		[1870,330.4692],
		[1871,331.3549],
		[1872,332.3959],
		[1873,333.286],
		[1874,334.3311],
		[1875,335.299],
		[1876,336.2603],
		[1877,337.2066],
		[1878,337.9825],
		[1879,338.8589],
		[1880,339.8366],
		[1881,340.7681],
		[1882,341.8453],
		[1883,342.7477],
		[1884,343.713],
		[1885,344.6353],
		[1886,345.9078],
		[1887,346.7481],
		[1888,347.6946],
		[1889,348.6933],
		[1890,349.6952],
		[1891,350.6172],
		[1892,351.5737],
		[1893,352.6511],
		[1894,353.4857],
		[1895,354.3022],
		[1896,355.1753],
		[1897,356.1644],
		[1898,357.0296],
		[1899,358.1082],
		[1900,359.0431],
		[1901,360.032],
		[1902,360.9094],
		[1903,361.7378],
		[1904,362.6406],
		[1905,363.4827],
		[1906,364.5338],
		[1907,365.3927],
		[1908,366.4971],
		[1909,367.3653],
		[1910,368.3961],
		[1911,369.2574],
		[1912,370.0796],
		[1913,371.0095],
		[1914,371.9673],
		[1915,372.8868],
		[1916,374.019],
		[1917,374.7974],
		[1918,375.831],
		[1919,376.6277],
		[1920,378.1045],
		[1921,379.1686],
		[1922,380.3508],
		[1923,381.3824],
		[1924,382.6315],
		[1925,383.7985],
		[1926,384.9174],
		[1927,385.9061],
		[1928,386.996],
		[1929,388.1716],
		[1930,389.2439],
		[1931,390.4739],
		[1932,391.5659],
		[1933,392.7253],
		[1934,393.7892],
		[1935,394.8781],
		[1936,395.983],
		[1937,397.067],
		[1938,398.314],
		[1939,399.344],
		[1940,400.5826],
		[1941,401.4742],
		[1942,402.5694],
		[1943,403.7383],
		[1944,404.8669],
		[1945,406.0623],
		[1946,407.1227],
		[1947,408.2412],
		[1948,411.132],
		[1949,412.1753],
		[1950,413.3323],
		[1951,414.4655],
		[1952,415.6444],
		[1953,416.6227],
		[1954,417.8313],
		[1955,418.825],
		[1956,419.8277],
		[1957,421.0359],
		[1958,422.1528],
		[1959,423.295],
		[1960,424.3351],
		[1961,425.5184],
		[1962,426.6155],
		[1963,427.6766],
		[1964,428.7552],
		[1965,429.8239],
		[1966,431.0322],
		[1967,432.1473],
		[1968,433.3104],
		[1969,434.3217],
		[1970,435.2817],
		[1971,436.4462],
		[1972,437.4851],
		[1973,438.7233],
		[1974,439.7589],
		[1975,440.9132],
		[1976,441.9008],
		[1977,443.3174],
		[1978,444.4291],
		[1979,445.5287],
		[1980,446.6978],
		[1981,447.7973],
		[1982,448.9548],
		[1983,449.9265],
		[1984,451.1889],
		[1985,452.5193],
		[1986,453.9718],
		[1987,455.1879],
		[1988,456.5128],
		[1989,457.8617],
		[1990,459.0433],
		[1991,460.4161],
		[1992,461.7932],
		[1993,463.048],
		[1994,464.4995],
		[1995,465.558],
		[1996,466.7924],
		[1997,468.1731],
		[1998,469.6577],
		[1999,471.0043],
		[2000,472.2637],
		[2001,473.7984],
		[2002,475.1823],
		[2003,476.4792],
		[2004,477.8066],
		[2005,479.1751],
		[2006,480.4152],
		[2007,481.5765],
		[2008,482.8942],
		[2009,484.2239],
		[2010,485.663],
		[2011,486.9027],
		[2012,488.153],
		[2013,489.4215],
		[2014,490.7109],
		[2015,492.1378],
		[2016,493.4251],
		[2017,494.7386],
		[2018,495.9146],
		[2019,497.2409],
		[2020,498.4792],
		[2021,499.9182],
		[2022,501.1938],
		[2023,502.4633],
		[2024,504.0378],
		[2025,505.3093],
		[2026,506.6014],
		[2027,508.0015],
		[2028,509.2296],
		[2029,510.5417],
		[2030,511.6556],
		[2031,513.0287],
		[2032,514.2673],
		[2033,515.6287],
		[2034,516.9623],
		[2035,518.1999],
		[2036,519.496],
		[2037,520.7577],
		[2038,521.9951],
		[2039,523.3665],
		[2040,524.6932],
		[2041,525.9348],
		[2042,527.0968],
		[2043,528.377],
		[2044,528.285],
		[2045,528.3807],
		[2046,528.3974],
		[2047,528.3881]
	]
}
